{
  "results": [
    {
      "popularity": 306.096,
      "vote_count": 3625,
      "video": false,
      "poster_path": "/7IiTTgloJzvGI1TAYymCfbfl3vT.jpg",
      "id": 496243,
      "adult": false,
      "backdrop_path": "/TU9NIjwzjoKPwQHoHshkFcQUCG.jpg",
      "original_language": "ko",
      "original_title": "기생충",
      "genre_ids": [35, 18, 53],
      "title": "Parasite",
      "vote_average": 8.6,
      "overview": "All unemployed, Ki-taek's family takes peculiar interest in the wealthy and glamorous Parks for their livelihood until they get entangled in an unexpected incident.",
      "release_date": "2019-05-30"
    },
    {
      "popularity": 201.67,
      "vote_count": 257,
      "video": false,
      "poster_path": "/yJdeWaVXa2se9agI6B4mQunVYkB.jpg",
      "id": 449924,
      "adult": false,
      "backdrop_path": "/ekP6EVxL81lZ4ivcqPsoZ72rY0h.jpg",
      "original_language": "cn",
      "original_title": "葉問4",
      "genre_ids": [28, 18, 36],
      "title": "Ip Man 4: The Finale",
      "vote_average": 6,
      "overview": "Following the death of his wife, Ip Man travels to San Francisco to ease tensions between the local kung fu masters and his star student, Bruce Lee, while searching for a better future for his son.",
      "release_date": "2019-12-20"
    },
    {
      "popularity": 164.687,
      "vote_count": 323,
      "video": false,
      "poster_path": "/hrraiBBuhu5E50otrtrykNqnOt5.jpg",
      "id": 448119,
      "adult": false,
      "backdrop_path": "/lG802rseTZcN9mtLsQPVfApEVzM.jpg",
      "original_language": "en",
      "original_title": "Dolittle",
      "genre_ids": [12, 35, 14],
      "title": "Dolittle",
      "vote_average": 6.5,
      "overview": "After losing his wife seven years earlier, the eccentric Dr. John Dolittle, famed doctor and veterinarian of Queen Victoria’s England, hermits himself away behind the high walls of Dolittle Manor with only his menagerie of exotic animals for company. But when the young queen falls gravely ill, a reluctant Dolittle is forced to set sail on an epic adventure to a mythical island in search of a cure, regaining his wit and courage as he crosses old adversaries and discovers wondrous creatures.",
      "release_date": "2020-01-01"
    },
    {
      "popularity": 154.151,
      "id": 454626,
      "video": false,
      "vote_count": 42,
      "vote_average": 7.7,
      "title": "Sonic the Hedgehog",
      "release_date": "2020-02-12",
      "original_language": "en",
      "original_title": "Sonic the Hedgehog",
      "genre_ids": [28, 12, 878],
      "backdrop_path": "/tCUcf3oNWMW8kwAj3WC6CvIN5ah.jpg",
      "adult": false,
      "overview": "Based on the global blockbuster videogame franchise from Sega, Sonic the Hedgehog tells the story of the world’s speediest hedgehog as he embraces his new home on Earth. In this live-action adventure comedy, Sonic and his new best friend team up to defend the planet from the evil genius Dr. Robotnik and his plans for world domination.",
      "poster_path": "/s8qRIwA0zDPbnRekeU0rDwWE7q7.jpg"
    },
    {
      "popularity": 129.768,
      "vote_count": 2451,
      "video": false,
      "poster_path": "/iZf0KyrE25z1sage4SYFLCCrMi9.jpg",
      "id": 530915,
      "adult": false,
      "backdrop_path": "/2WgieNR1tGHlpJUsolbVzbUbE1O.jpg",
      "original_language": "en",
      "original_title": "1917",
      "genre_ids": [28, 18, 10752],
      "title": "1917",
      "vote_average": 8.1,
      "overview": "At the height of the First World War, two young British soldiers must cross enemy territory and deliver a message that will stop a deadly attack on hundreds of soldiers.",
      "release_date": "2019-12-10"
    },
    {
      "popularity": 109.021,
      "vote_count": 751,
      "video": false,
      "poster_path": "/y95lQLnuNKdPAzw9F9Ab8kJ80c3.jpg",
      "id": 38700,
      "adult": false,
      "backdrop_path": "/upUy2QhMZEmtypPW3PdieKLAHxh.jpg",
      "original_language": "en",
      "original_title": "Bad Boys for Life",
      "genre_ids": [28, 80, 53],
      "title": "Bad Boys for Life",
      "vote_average": 6.5,
      "overview": "Marcus and Mike are forced to confront new threats, career changes, and midlife crises as they join the newly created elite team AMMO of the Miami police department to take down the ruthless Armando Armas, the vicious leader of a Miami drug cartel.",
      "release_date": "2020-01-15"
    },
    {
      "popularity": 52.468,
      "vote_count": 12,
      "video": false,
      "poster_path": "/ofJp9SfJFlzCaDCUFfvCx08Hwfh.jpg",
      "id": 586592,
      "adult": false,
      "backdrop_path": "/nIXWrG6xxl56NFBtAR1vlduTEgy.jpg",
      "original_language": "en",
      "original_title": "Come to Daddy",
      "genre_ids": [35, 27, 53],
      "title": "Come to Daddy",
      "vote_average": 5.8,
      "overview": "After receiving a cryptic letter from his estranged father, Norval travels to his dad’s oceanfront home for what he hopes will be a positive experience. If only he’d known the dark truth about his old man beforehand.",
      "release_date": "2020-02-07"
    },
    {
      "popularity": 56.662,
      "vote_count": 8,
      "video": false,
      "poster_path": "/8ZMrZGGW65ePWIgRn1260nA1uUm.jpg",
      "id": 539537,
      "adult": false,
      "backdrop_path": "/dzfiE2VHY362dGI62XfZ2iI87CT.jpg",
      "original_language": "en",
      "original_title": "Fantasy Island",
      "genre_ids": [14, 27, 878],
      "title": "Fantasy Island",
      "vote_average": 4.3,
      "overview": "A group of contest winners arrive at an island hotel to live out their dreams, only to find themselves trapped in nightmare scenarios.",
      "release_date": "2020-02-12"
    },
    {
      "popularity": 48.72,
      "vote_count": 231,
      "video": false,
      "poster_path": "/p9vCAVhDK375XyobVcKqzqzsUHE.jpg",
      "id": 501907,
      "adult": false,
      "backdrop_path": "/w0tJot6O0UtLVBRIPAdg3dQ2oNO.jpg",
      "original_language": "en",
      "original_title": "A Beautiful Day in the Neighborhood",
      "genre_ids": [18],
      "title": "A Beautiful Day in the Neighborhood",
      "vote_average": 7.3,
      "overview": "An award-winning cynical journalist, Lloyd Vogel, begrudgingly accepts an assignment to write an Esquire profile piece on the beloved television icon Fred Rogers. After his encounter with Rogers, Vogel's perspective on life is transformed.",
      "release_date": "2019-11-22"
    },
    {
      "popularity": 48.551,
      "vote_count": 1,
      "video": false,
      "poster_path": "/cdqZqIcWt0Ne2Io2OA9iWqqMuCA.jpg",
      "id": 589049,
      "adult": false,
      "backdrop_path": "/kU5qE5b6ksL3osaqKCUlMS08Ays.jpg",
      "original_language": "en",
      "original_title": "The Photograph",
      "genre_ids": [18, 10749],
      "title": "The Photograph",
      "vote_average": 10,
      "overview": "When famed photographer Christina Eames dies unexpectedly, she leaves her estranged daughter, Mae, hurt, angry and full of questions. When Mae finds a photograph tucked away in a safe-deposit box, she soon finds herself delving into her mother's early life -- an investigation that leads to an unexpected romance with a rising journalist.",
      "release_date": "2020-02-14"
    },
    {
      "popularity": 42.882,
      "vote_count": 190,
      "video": false,
      "poster_path": "/jtrhTYB7xSrJxR1vusu99nvnZ1g.jpg",
      "id": 522627,
      "adult": false,
      "backdrop_path": "/9Qfawg9WT3cSbBXQgDRuWbYS9lj.jpg",
      "original_language": "en",
      "original_title": "The Gentlemen",
      "genre_ids": [28, 35, 80],
      "title": "The Gentlemen",
      "vote_average": 7.7,
      "overview": "American expat Mickey Pearson has built a highly profitable marijuana empire in London. When word gets out that he’s looking to cash out of the business forever it triggers plots, schemes, bribery and blackmail in an attempt to steal his domain out from under him.",
      "release_date": "2019-12-03"
    },
    {
      "popularity": 34.159,
      "vote_count": 55,
      "video": false,
      "poster_path": "/vkwgzCBBiY3C1XEy0WakYfMOvnG.jpg",
      "id": 548473,
      "adult": false,
      "backdrop_path": "/iyn2JQsftaqhQlXYaCCvn8udM5i.jpg",
      "original_language": "en",
      "original_title": "Color Out of Space",
      "genre_ids": [27, 878, 53],
      "title": "Color Out of Space",
      "vote_average": 6.7,
      "overview": "The Gardner family moves to a remote farmstead in rural New England to escape the hustle of the 21st century. They are busy adapting to their new life when a meteorite crashes into their front yard, melts into the earth, and infects both the land and the properties of space-time with a strange, otherworldly colour. To their horror, the family discovers this alien force is gradually mutating every life form that it touches—including them.",
      "release_date": "2019-09-24"
    },
    {
      "popularity": 36.99,
      "vote_count": 1,
      "video": false,
      "poster_path": "/dV3t2ZrforWd803QmgEMOVkv8Mj.jpg",
      "id": 560391,
      "adult": false,
      "backdrop_path": null,
      "original_language": "en",
      "original_title": "Downhill",
      "genre_ids": [18],
      "title": "Downhill",
      "vote_average": 2,
      "overview": "Barely escaping an avalanche during a family ski vacation in the Alps, a married couple is thrown into disarray as they are forced to reevaluate their lives and how they feel about each other.",
      "release_date": "2020-02-13"
    },
    {
      "popularity": 55.264,
      "vote_count": 1,
      "video": false,
      "poster_path": "/sm8iVzA7kRp0d4BSIsgXjsSBMKV.jpg",
      "id": 556678,
      "adult": false,
      "backdrop_path": "/5GbkL9DDRzq3A21nR7Gkv6cFGjq.jpg",
      "original_language": "en",
      "original_title": "Emma",
      "genre_ids": [35, 18],
      "title": "Emma",
      "vote_average": 8,
      "overview": "A young woman despite the best intentions, heedlessly meddles in people’s romantic affairs as she tries to play matchmaker.",
      "release_date": "2020-02-14"
    },
    {
      "popularity": 36.422,
      "vote_count": 1403,
      "video": false,
      "poster_path": "/dtRbVsUb5O12WWO54SRpiMtHKC0.jpg",
      "id": 338967,
      "adult": false,
      "backdrop_path": "/3ghImmHdp4RnC3UkL6hpLayclnb.jpg",
      "original_language": "en",
      "original_title": "Zombieland: Double Tap",
      "genre_ids": [28, 35, 27],
      "title": "Zombieland: Double Tap",
      "vote_average": 6.9,
      "overview": "Columbus, Tallahassee, Wichita, and Little Rock move to the American heartland as they face off against evolved zombies, fellow survivors, and the growing pains of the snarky makeshift family.",
      "release_date": "2019-10-09"
    },
    {
      "popularity": 28.445,
      "vote_count": 275,
      "video": false,
      "poster_path": "/iqJhHjD6k6T07waELjMKDpQJUP.jpg",
      "id": 491283,
      "adult": false,
      "backdrop_path": "/hJXxDoCwchAuJ4K3gwtno2chgr8.jpg",
      "original_language": "en",
      "original_title": "Judy",
      "genre_ids": [18],
      "title": "Judy",
      "vote_average": 6.8,
      "overview": "Winter 1968 and showbiz legend Judy Garland arrives in Swinging London to perform a five-week sold-out run at The Talk of the Town. It is 30 years since she shot to global stardom in The Wizard of Oz, but if her voice has weakened, its dramatic intensity has only grown. As she prepares for the show, battles with management, charms musicians and reminisces with friends and adoring fans, her wit and warmth shine through. Even her dreams of love seem undimmed as she embarks on a whirlwind romance with Mickey Deans, her soon-to-be fifth husband.",
      "release_date": "2019-09-27"
    },
    {
      "popularity": 28.683,
      "vote_count": 43,
      "video": false,
      "poster_path": "/mBBBXseq4k4dI63k06XIrsc02j8.jpg",
      "id": 542224,
      "adult": false,
      "backdrop_path": "/en1XAePgWqNSXb82luUMmo5u3cF.jpg",
      "original_language": "en",
      "original_title": "Gretel & Hansel",
      "genre_ids": [14, 27, 53],
      "title": "Gretel & Hansel",
      "vote_average": 5.5,
      "overview": "A long time ago in a distant fairy tale countryside, a young girl leads her little brother into a dark wood in desperate search of food and work, only to stumble upon a nexus of terrifying evil.",
      "release_date": "2020-01-30"
    },
    {
      "popularity": 29.162,
      "vote_count": 0,
      "video": false,
      "poster_path": "/nY3R3ATLsjkxwLKvdQwVYf9xAhA.jpg",
      "id": 470610,
      "adult": false,
      "backdrop_path": null,
      "original_language": "en",
      "original_title": "Endless",
      "genre_ids": [18, 14, 10749],
      "title": "Endless",
      "vote_average": 0,
      "overview": "When madly in love high school graduates Riley (Alexandra Shipp) and Chris (Nicholas Hamilton) are separated by a tragic car accident, Riley blames herself for her boyfriend's death while Chris is stranded in limbo. Miraculously, the two find a way to connect. In a love story that transcends life and death, both Riley and Chris are forced to learn the hardest lesson of all: letting go.",
      "release_date": "2020-02-13"
    },
    {
      "popularity": 24.491,
      "vote_count": 774,
      "video": false,
      "poster_path": "/3nk9UoepYmv1G9oP18q6JJCeYwN.jpg",
      "id": 503919,
      "adult": false,
      "backdrop_path": "/i51wnN9phojyn14xHjQt6rv1r0x.jpg",
      "original_language": "en",
      "original_title": "The Lighthouse",
      "genre_ids": [18, 14, 27, 9648],
      "title": "The Lighthouse",
      "vote_average": 7.7,
      "overview": "Two lighthouse keepers try to maintain their sanity while living on a remote and mysterious New England island in the 1890s.",
      "release_date": "2019-10-18"
    },
    {
      "popularity": 24.494,
      "vote_count": 194,
      "video": false,
      "poster_path": "/jlHL2BH176JApGiLnNQLQgdjMFd.jpg",
      "id": 443791,
      "adult": false,
      "backdrop_path": "/fYPiQewg7ogbzro2XcCTACSB2KC.jpg",
      "original_language": "en",
      "original_title": "Underwater",
      "genre_ids": [27, 878, 53],
      "title": "Underwater",
      "vote_average": 6,
      "overview": "After an earthquake destroys their underwater station, six researchers must navigate two miles along the dangerous, unknown depths of the ocean floor to make it to safety in a race against time.",
      "release_date": "2020-01-08"
    }
  ],
  "page": 1,
  "total_results": 301,
  "dates": {
    "maximum": "2020-03-10",
    "minimum": "2020-02-20"
  },
  "total_pages": 16
}
